{
    "@class": "com.kony.gen.viz.model.component.KVizRichText",
    "DNDConfig": null,
    "__parentReadjusting__": false,
    "_height_": {
        "type": "string",
        "value": "42dp"
    },
    "_left_": {
        "type": "string",
        "value": "19dp"
    },
    "_margin_": [
        0,
        0,
        0,
        0
    ],
    "_padding_": [
        0,
        0,
        0,
        0
    ],
    "_skin_": "s0b9883f6eab456c8a4c41284a43ef56",
    "_text_": "ул. Нижнеднепровская, 17\n\nДнепр",
    "_top_": {
        "type": "string",
        "value": "462dp"
    },
    "_width_": {
        "type": "string",
        "value": "75.93%"
    },
    "_wrapping_": 2,
    "canUpdateUI": true,
    "containerweight": 100,
    "contentalignment": 4,
    "id": "txtCinemaInfo",
    "info": null,
    "iscustomlayout": false,
    "isvisible": true,
    "kuid": "g9f24033d8f94d90941fe2ca44ec6446",
    "linkskin": "s3ec88d11e7343f3b7aea9de242feec5",
    "name": "kony.ui.RichText",
    "parent": "contChosenCinema",
    "pf": "frmChosenCinema",
    "retaincontentalignment": false,
    "retainflexpositionproperties": false,
    "wType": "RichText",
    "widgetalignment": 5,
    "zindex": 1
}