{
  "android": {
    "font_name": "Helvetica",
    "font_size": 203,
    "isForked": false
  },
  "androidwearos": {
    "font_name": "default",
    "font_size": 203,
    "isForked": false
  },
  "background_color": "4b88f1ff",
  "bg_type": "one",
  "border_color": "8ea6e6ff",
  "border_style": "rc",
  "border_type": 0,
  "border_width": 1,
  "desktopweb": {
    "font_name": "Helvetica",
    "font_size": 203,
    "isForked": false
  },
  "fontSizeInPx": false,
  "font_color": "ffffffff",
  "font_name": "iphoneSystem",
  "font_size": 203,
  "font_style": "normal",
  "font_weight": "bold",
  "ipad": {
    "font_name": "System",
    "font_size": 203,
    "isForked": false
  },
  "iphone": {
    "font_name": "HelveticaNeue",
    "font_size": 203,
    "isForked": false
  },
  "isDefaultSkin": false,
  "kiosk": {
    "font_name": "None",
    "font_size": 203,
    "isForked": false
  },
  "kuid": "sf6920859e70463c998cc7abea8300c3",
  "spaan": {
    "font_name": "Helvetica",
    "font_size": 203,
    "isForked": false
  },
  "spaandroidtablet": {
    "font_name": "Helvetica",
    "font_size": 203,
    "isForked": false
  },
  "spabb": {
    "font_name": "Helvetica",
    "font_size": 203,
    "isForked": false
  },
  "spaip": {
    "font_name": "Helvetica",
    "font_size": 203,
    "isForked": false
  },
  "spaipad": {
    "font_name": "Helvetica",
    "font_size": 203,
    "isForked": false
  },
  "spawindowstablet": {
    "font_name": "Helvetica",
    "font_size": 203,
    "isForked": false
  },
  "spawinphone8": {
    "font_name": "Helvetica",
    "font_size": 203,
    "isForked": false
  },
  "tabrcandroid": {
    "font_name": "default",
    "font_size": 203,
    "isForked": false
  },
  "wType": "Button",
  "watchos": {
    "font_name": "System",
    "font_size": 203,
    "isForked": false
  },
  "windows8": {
    "font_name": "None",
    "font_size": 203,
    "isForked": false
  },
  "winphone8": {
    "font_name": "None",
    "font_size": 203,
    "isForked": false
  }
}