{
  "android": {
    "font_name": "default",
    "font_size": 97,
    "isForked": false
  },
  "androidwearos": {
    "font_name": "default",
    "font_size": 97,
    "isForked": false
  },
  "background_color": "00000000",
  "bg_type": "one",
  "border_color": "424242ff",
  "border_style": "plain",
  "border_type": 0,
  "border_width": 0,
  "desktopweb": {
    "font_name": "Helvetica",
    "font_size": 97,
    "isForked": false
  },
  "fontSizeInPx": false,
  "font_color": "8dc33bff",
  "font_name": "iphoneSystem",
  "font_size": 97,
  "font_style": "underline",
  "font_weight": "normal",
  "ipad": {
    "font_name": "System",
    "font_size": 97,
    "isForked": false
  },
  "iphone": {
    "font_name": "System",
    "font_size": 97,
    "isForked": false
  },
  "isDefaultSkin": false,
  "kiosk": {
    "font_name": "None",
    "font_size": 97,
    "isForked": false
  },
  "kuid": "se75d614186a464e96e4635e06a3ff2a",
  "spaan": {
    "font_name": "Helvetica",
    "font_size": 97,
    "isForked": false
  },
  "spaandroidtablet": {
    "font_name": "Helvetica",
    "font_size": 97,
    "isForked": false
  },
  "spabb": {
    "font_name": "Helvetica",
    "font_size": 97,
    "isForked": false
  },
  "spaip": {
    "font_name": "Helvetica",
    "font_size": 97,
    "isForked": false
  },
  "spaipad": {
    "font_name": "Helvetica",
    "font_size": 97,
    "isForked": false
  },
  "spawindowstablet": {
    "font_name": "Helvetica",
    "font_size": 97,
    "isForked": false
  },
  "spawinphone8": {
    "font_name": "Helvetica",
    "font_size": 97,
    "isForked": false
  },
  "tabrcandroid": {
    "font_name": "default",
    "font_size": 97,
    "isForked": false
  },
  "wType": "RichText",
  "watchos": {
    "font_name": "System",
    "font_size": 97,
    "isForked": false
  },
  "windows8": {
    "font_name": "None",
    "font_size": 97,
    "isForked": false
  },
  "winphone8": {
    "font_name": "None",
    "font_size": 97,
    "isForked": false
  }
}