{
  "android": {
    "font_name": "default",
    "font_size": 105,
    "isForked": false
  },
  "androidwearos": {
    "font_name": "default",
    "font_size": 105,
    "isForked": false
  },
  "background_color": "ffffff19",
  "bg_type": "one",
  "border_color": "322e55ff",
  "border_style": "rc",
  "border_type": 0,
  "border_width": 1,
  "desktopweb": {
    "font_name": "Helvetica",
    "font_size": 105,
    "isForked": false
  },
  "fontSizeInPx": false,
  "font_color": "ffffffff",
  "font_name": "iphoneSystem",
  "font_size": 105,
  "font_style": "normal",
  "font_weight": "normal",
  "ipad": {
    "font_name": "System",
    "font_size": 105,
    "isForked": false
  },
  "iphone": {
    "font_name": "System",
    "font_size": 105,
    "isForked": false
  },
  "isDefaultSkin": false,
  "kiosk": {
    "font_name": "None",
    "font_size": 105,
    "isForked": false
  },
  "kuid": "sfc8b220c4b042f786763b429688db7d",
  "spaan": {
    "font_name": "Helvetica",
    "font_size": 105,
    "isForked": false
  },
  "spaandroidtablet": {
    "font_name": "Helvetica",
    "font_size": 105,
    "isForked": false
  },
  "spabb": {
    "font_name": "Helvetica",
    "font_size": 105,
    "isForked": false
  },
  "spaip": {
    "font_name": "Helvetica",
    "font_size": 105,
    "isForked": false
  },
  "spaipad": {
    "font_name": "Helvetica",
    "font_size": 105,
    "isForked": false
  },
  "spawindowstablet": {
    "font_name": "Helvetica",
    "font_size": 105,
    "isForked": false
  },
  "spawinphone8": {
    "font_name": "Helvetica",
    "font_size": 105,
    "isForked": false
  },
  "tabrcandroid": {
    "font_name": "default",
    "font_size": 105,
    "isForked": false
  },
  "wType": "TextArea",
  "watchos": {
    "font_name": "System",
    "font_size": 105,
    "isForked": false
  },
  "windows8": {
    "font_name": "None",
    "font_size": 105,
    "isForked": false
  },
  "winphone8": {
    "font_name": "None",
    "font_size": 105,
    "isForked": false
  }
}