{
    "@class": "com.kony.gen.viz.model.container.KVizTabPane",
    "DNDConfig": null,
    "__parentReadjusting__": false,
    "_activeTabsBackUp": [
        0
    ],
    "_height_": {
        "type": "string",
        "value": "650dp"
    },
    "_left_": {
        "type": "string",
        "value": "0dp"
    },
    "_margin_": [
        0,
        0,
        0,
        0
    ],
    "_orientation_": 1,
    "_padding_": [
        0,
        0,
        0,
        0
    ],
    "_percent_": true,
    "_top_": {
        "type": "string",
        "value": "65dp"
    },
    "_width_": {
        "type": "string",
        "value": "100%"
    },
    "activeskin": "s71705c9cc744a82b441d8a9de99c384",
    "activetab": 0,
    "activetabs": [
        0
    ],
    "allboxes": [],
    "canUpdateUI": true,
    "children": [
        "subTabFilms",
        "subTabCinema"
    ],
    "collapsedimage": "",
    "containerweight": 100,
    "context": {
        "channel": "mobile",
        "formID": "frmCatalog",
        "platform": "android",
        "tabpaneID": "",
        "templateType": "forms",
        "topLevelBox": null
    },
    "disabledSkins": {},
    "expandedimage": "",
    "id": "tabFilmCinema",
    "imageposition": "right",
    "inactiveskin": "s015177893d644178077006fec88da78",
    "info": null,
    "iscustomlayout": false,
    "isvisible": true,
    "kuid": "cf5a479586b945ebad4231348c6e04d6",
    "layouttype": 0,
    "margininpixel": false,
    "name": "kony.ui.TabPane",
    "paddinginpixel": false,
    "parent": "contMain",
    "pf": "frmCatalog",
    "retaincontentalignment": false,
    "retainflexpositionproperties": false,
    "screenlevelwidget": false,
    "tabnamealignment": "left",
    "toggletabs": false,
    "viewconfig": {
        "collapsibleViewConfig": {
            "collapsedImage": "",
            "expandedImage": "",
            "imagePosition": "right",
            "tabNameAlignment": "left",
            "toggleTabs": false
        },
        "pageViewConfig": {
            "needPageIndicator": true,
            "pageOffDotImage": "",
            "pageOnDotImage": ""
        },
        "panoramaViewConfig": {
            "panoramaImage": "",
            "panoramaTitle": "",
            "panoramaTitleImage": ""
        },
        "tabViewConfig": {
            "headerPosition": "top",
            "image1": "tableftarrow.png",
            "image2": "tabrightarrow.png"
        }
    },
    "viewtype": "tabview",
    "wType": "TabPane",
    "zindex": 1
}