{
    "DNDConfig": null,
    "_height_": {
        "type": "string",
        "value": "23%"
    },
    "_margin_": [
        0,
        0,
        0,
        0
    ],
    "_orientation_": 6,
    "_padding_": [
        0,
        0,
        0,
        0
    ],
    "_percent_": true,
    "_width_": {
        "type": "string",
        "value": "100%"
    },
    "allboxes": [],
    "autogrowmode": 0,
    "canUpdateUI": true,
    "children": [
        "imgFilm",
        "txtFilm",
        "btnScreening",
        "txtGenre",
        "RichText0a1d2d140c1bb4c"
    ],
    "clipbounds": false,
    "containerId": true,
    "containerweight": 100,
    "controllerInfo": {
        "default": {
            "channel": "mobile",
            "name": "FBox0cb546b8d7b4f41Controller"
        }
    },
    "enablescrolling": true,
    "id": "FBox0cb546b8d7b4f41",
    "info": null,
    "isGeneratedTemplate": true,
    "isTemplate": true,
    "iscustomlayout": false,
    "isvisible": true,
    "kuid": "b2a67833ed1c4c2085fd44955f92f152",
    "layouttype": 2,
    "name": "kony.ui.FlexContainer",
    "pf": "FBox0cb546b8d7b4f41",
    "retaincontentalignment": false,
    "retainflexpositionproperties": false,
    "snapgridsize": 10,
    "snaptogrid": true,
    "wType": "FlexContainer",
    "widgetalignment": 1
}