{
    "@class": "com.kony.gen.viz.model.component.KVizRichText",
    "DNDConfig": null,
    "__parentReadjusting__": false,
    "_height_": {
        "type": "string",
        "value": "35dp"
    },
    "_left_": {
        "type": "string",
        "value": "112dp"
    },
    "_margin_": [
        0,
        0,
        0,
        0
    ],
    "_padding_": [
        0,
        0,
        0,
        0
    ],
    "_skin_": "sa0a5c2dc8ae46e29759ee909cbe74a6",
    "_text_": "8.0",
    "_top_": {
        "type": "string",
        "value": "90dp"
    },
    "_width_": {
        "type": "string",
        "value": "8.59%"
    },
    "_wrapping_": 2,
    "canUpdateUI": true,
    "containerId": true,
    "containerweight": 100,
    "contentalignment": 5,
    "id": "RichText0a1d2d140c1bb4c",
    "info": null,
    "iscustomlayout": false,
    "isvisible": true,
    "kuid": "g8de3a2e4e4444dfaf22ffa15c721a30",
    "linkskin": "s3ec88d11e7343f3b7aea9de242feec5",
    "name": "kony.ui.RichText",
    "parent": "FBox0cb546b8d7b4f41",
    "pf": "FBox0cb546b8d7b4f41",
    "retaincontentalignment": false,
    "retainflexpositionproperties": false,
    "wType": "RichText",
    "watchos": {
        "render": false
    },
    "widgetalignment": 5,
    "windows10": {
        "render": false
    },
    "winphone10": {
        "render": false
    },
    "zindex": 1
}