{
    "@class": "com.kony.gen.viz.model.component.KVizButton",
    "DNDConfig": null,
    "__parentReadjusting__": false,
    "_height_": {
        "type": "string",
        "value": "50dp"
    },
    "_left_": {
        "type": "string",
        "value": "61dp"
    },
    "_margin_": [
        6,
        6,
        6,
        6
    ],
    "_padding_": [
        0,
        0,
        0,
        0
    ],
    "_skin_": "s9f0a5240c5a48bca1e22d2d3d6b6130",
    "_text_": "SIGN UP",
    "_top_": {
        "type": "string",
        "value": "504dp"
    },
    "_width_": {
        "type": "string",
        "value": "154dp"
    },
    "canUpdateUI": true,
    "containerweight": 100,
    "contentalignment": 5,
    "displaytext": true,
    "focusskin": "s5c904a9027240529241df1e1e8b7180",
    "id": "btnSignUp",
    "info": null,
    "iscustomlayout": false,
    "isvisible": true,
    "kuid": "ff2fd24a1f744d1a95dbbcf36fa3eebc",
    "name": "kony.ui.Button",
    "parent": "frmStart",
    "pf": "frmStart",
    "retaincontentalignment": false,
    "retainflexpositionproperties": false,
    "wType": "Button",
    "zindex": 1
}