{
    "@class": "com.kony.gen.viz.model.component.KVizImage2",
    "DNDConfig": null,
    "__parentReadjusting__": false,
    "_base64_": null,
    "_height_": {
        "type": "string",
        "value": "208dp"
    },
    "_left_": {
        "type": "string",
        "value": "0dp"
    },
    "_margin_": [
        0,
        0,
        0,
        0
    ],
    "_padding_": [
        0,
        0,
        0,
        0
    ],
    "_skin_": "sfeb5600f5134a0dac1851ddd163c17c",
    "_src_": "imagedrag.png",
    "_top_": {
        "type": "string",
        "value": "5dp"
    },
    "_width_": {
        "type": "string",
        "value": "415dp"
    },
    "canUpdateUI": true,
    "containerId": true,
    "containerweight": 100,
    "context": {
        "channel": "mobile",
        "formID": "FBox0b2e37808444447",
        "templateType": "segments",
        "topLevelBox": null
    },
    "id": "imgChosenFilm",
    "imagescalemode": 0,
    "info": null,
    "isSegmentChild": true,
    "iscustomlayout": false,
    "isvisible": true,
    "kuid": "ebecd2a29a4244cbb84714dba8dc770e",
    "name": "kony.ui.Image2",
    "parent": "FBox0b2e37808444447",
    "pf": "FBox0b2e37808444447",
    "retaincontentalignment": false,
    "retainflexpositionproperties": false,
    "srcType": 1,
    "wType": "Image",
    "widgetalignment": 5,
    "zindex": 1
}