{
    "@class": "com.kony.gen.viz.model.component.KVizCheckBox",
    "DNDConfig": null,
    "__parentReadjusting__": false,
    "_height_": {
        "type": "string",
        "value": "35dp"
    },
    "_left_": {
        "type": "string",
        "value": "69dp"
    },
    "_margin_": [
        0,
        0,
        0,
        0
    ],
    "_padding_": [
        0,
        0,
        0,
        0
    ],
    "_skin_": "sa78819de6d34b1d88d47648abd1e43d",
    "_top_": {
        "type": "string",
        "value": "304dp"
    },
    "_width_": {
        "type": "string",
        "value": "36.11%"
    },
    "canUpdateUI": true,
    "containerweight": 100,
    "id": "chkRememberMe",
    "info": null,
    "ipad": {
        "psp": {
            "viewType": 4
        }
    },
    "iphone": {
        "psp": {
            "viewType": 4
        }
    },
    "iscustomlayout": false,
    "isvisible": true,
    "itemorientation": "vertical",
    "kuid": "fadb22f3e1134509b027dd0ede7bad62",
    "masterdata": [
        [
            "cbg1",
            "Remember me"
        ]
    ],
    "name": "kony.ui.CheckBoxGroup",
    "orientation": "vertical",
    "parent": "frmSignIn",
    "pf": "frmSignIn",
    "retaincontentalignment": false,
    "retainflexpositionproperties": false,
    "selectedkey": null,
    "selectedkeys": [
        "cbg1"
    ],
    "selectedkeyvalue": null,
    "selectedkeyvalues": [
        [
            "cbg1",
            "Remember me"
        ]
    ],
    "size": 18,
    "viewtype": 0,
    "wType": "CheckBoxGroup",
    "widgetalignment": 5,
    "zindex": 1
}