{
    "@class": "com.kony.gen.viz.model.component.KVizTextBox2",
    "DNDConfig": null,
    "__parentReadjusting__": false,
    "_height_": {
        "type": "string",
        "value": "40dp"
    },
    "_left_": {
        "type": "string",
        "value": "71dp"
    },
    "_margin_": [
        0,
        0,
        0,
        0
    ],
    "_padding_": [
        3,
        0,
        0,
        0
    ],
    "_placeholder_": "Placeholder",
    "_skin_": "s7f9b68336444398b7efd3fbad63c022",
    "_text_": "E mail",
    "_top_": {
        "type": "string",
        "value": "200dp"
    },
    "_width_": {
        "type": "string",
        "value": "277dp"
    },
    "autocapitalize": "none",
    "autocomplete": false,
    "autocorrect": false,
    "autofilter": false,
    "canUpdateUI": true,
    "centerx": {
        "type": "string",
        "value": "50%"
    },
    "containerheight": "",
    "containerheightmode": 1,
    "containerweight": 100,
    "contentalignment": 4,
    "focusskin": "sbd0f6bcd1274b068a9b47383898cc6a",
    "id": "fldLoginReg",
    "info": null,
    "iscustomlayout": false,
    "isvisible": true,
    "keyboardtype": "A",
    "kuid": "d545adc9db35453cb3ed0e5b5928d62e",
    "mode": "A",
    "name": "kony.ui.TextBox2",
    "parent": "frmSignIn",
    "pf": "frmSignIn",
    "placeholderskin": "s8771c361dc145a8a5f9904122917c0e",
    "retaincontentalignment": false,
    "retainflexpositionproperties": false,
    "securetextentry": false,
    "textinputmode": "A",
    "tooltip": "",
    "viewtype": "default",
    "wType": "TextField",
    "zindex": 1
}