{
    "@class": "com.kony.gen.viz.model.component.KVizTextBox2",
    "DNDConfig": null,
    "__parentReadjusting__": false,
    "_height_": {
        "type": "string",
        "value": "40dp"
    },
    "_left_": {
        "type": "string",
        "value": "75dp"
    },
    "_margin_": [
        0,
        0,
        0,
        0
    ],
    "_padding_": [
        3,
        0,
        0,
        0
    ],
    "_placeholder_": "Placeholder",
    "_skin_": "s12393fdaf92445b8476d767805f424d",
    "_text_": "Password",
    "_top_": {
        "type": "string",
        "value": "254dp"
    },
    "_width_": {
        "type": "string",
        "value": "277dp"
    },
    "autocapitalize": "none",
    "autocomplete": false,
    "autocorrect": false,
    "autofilter": false,
    "canUpdateUI": true,
    "centerx": {
        "type": "string",
        "value": "50%"
    },
    "containerheight": "",
    "containerheightmode": 1,
    "containerweight": 100,
    "contentalignment": 4,
    "focusskin": "s0818305e1d44b15ab1f2cff03dc8b7e",
    "id": "fldPasswordReg",
    "info": null,
    "iscustomlayout": false,
    "isvisible": true,
    "keyboardtype": "A",
    "kuid": "e36841ce39104e03970ea7d97cd76b5d",
    "mode": "A",
    "name": "kony.ui.TextBox2",
    "parent": "frmSignIn",
    "pf": "frmSignIn",
    "placeholderskin": "s8771c361dc145a8a5f9904122917c0e",
    "retaincontentalignment": false,
    "retainflexpositionproperties": false,
    "securetextentry": false,
    "textinputmode": "A",
    "tooltip": "",
    "viewtype": "default",
    "wType": "TextField",
    "zindex": 1
}