{
    "@class": "com.kony.gen.viz.model.component.KVizRichText",
    "DNDConfig": null,
    "__parentReadjusting__": false,
    "_height_": {
        "type": "string",
        "value": "23dp"
    },
    "_left_": {
        "type": "string",
        "value": "123dp"
    },
    "_margin_": [
        0,
        0,
        0,
        0
    ],
    "_padding_": [
        0,
        0,
        0,
        0
    ],
    "_skin_": "sb4889e515064223b8499432013e1f60",
    "_text_": "enter your data",
    "_top_": {
        "type": "string",
        "value": "162dp"
    },
    "_width_": {
        "type": "string",
        "value": "100%"
    },
    "_wrapping_": 2,
    "canUpdateUI": true,
    "centerx": {
        "type": "string",
        "value": "50.90%"
    },
    "containerweight": 100,
    "contentalignment": 5,
    "id": "txtEnterData",
    "info": null,
    "iscustomlayout": false,
    "isvisible": true,
    "kuid": "d649a72ed8404c0c9f4345321da086ab",
    "linkskin": "s3ec88d11e7343f3b7aea9de242feec5",
    "name": "kony.ui.RichText",
    "parent": "frmSignIn",
    "pf": "frmSignIn",
    "retaincontentalignment": false,
    "retainflexpositionproperties": false,
    "wType": "RichText",
    "widgetalignment": 5,
    "zindex": 1
}