{
    "@class": "com.kony.gen.viz.model.component.KVizRichText",
    "DNDConfig": null,
    "__parentReadjusting__": false,
    "_height_": {
        "type": "string",
        "value": "42dp"
    },
    "_left_": {
        "type": "string",
        "value": "15dp"
    },
    "_margin_": [
        0,
        0,
        0,
        0
    ],
    "_padding_": [
        0,
        0,
        0,
        0
    ],
    "_skin_": "sb9210c50b184d5dbe51c76942111fb6",
    "_text_": "Хеллоуин",
    "_top_": {
        "type": "string",
        "value": "246dp"
    },
    "_width_": {
        "type": "string",
        "value": "49.97%"
    },
    "_wrapping_": 2,
    "canUpdateUI": true,
    "containerweight": 100,
    "contentalignment": 4,
    "id": "txtChosenFilmTitle",
    "info": null,
    "iscustomlayout": false,
    "isvisible": true,
    "kuid": "i3c129559eb247cfa64c7cbbb57afd32",
    "linkskin": "s3ec88d11e7343f3b7aea9de242feec5",
    "name": "kony.ui.RichText",
    "parent": "contChosenFilm",
    "pf": "frmChosenFilm",
    "retaincontentalignment": false,
    "retainflexpositionproperties": false,
    "wType": "RichText",
    "widgetalignment": 5,
    "zindex": 1
}