{
    "@class": "com.kony.gen.viz.model.component.KVizRichText",
    "DNDConfig": null,
    "__parentReadjusting__": false,
    "_height_": {
        "type": "string",
        "value": "77dp"
    },
    "_left_": {
        "type": "string",
        "value": "15dp"
    },
    "_margin_": [
        0,
        0,
        0,
        0
    ],
    "_padding_": [
        0,
        0,
        0,
        0
    ],
    "_skin_": "sa95fc5284634bb0ae468d26b8ac0f59",
    "_text_": "Хэллоуинская ночь в жизни Лори Строуд давно перестала быть каким-то праздником. После событий 1978 года...",
    "_top_": {
        "type": "string",
        "value": "585dp"
    },
    "_width_": {
        "type": "string",
        "value": "92.75%"
    },
    "_wrapping_": 2,
    "canUpdateUI": true,
    "containerweight": 100,
    "contentalignment": 4,
    "id": "txtStory",
    "info": null,
    "iscustomlayout": false,
    "isvisible": true,
    "kuid": "e6c355b8660d4c79bba63766fb5fe71d",
    "linkskin": "s3ec88d11e7343f3b7aea9de242feec5",
    "name": "kony.ui.RichText",
    "parent": "contChosenFilm",
    "pf": "frmChosenFilm",
    "retaincontentalignment": false,
    "retainflexpositionproperties": false,
    "wType": "RichText",
    "widgetalignment": 5,
    "zindex": 1
}